%!PS-Adobe-3.0 EPSF-3.0
%%Creator: (MATLAB, The Mathworks, Inc. Version 9.9.0.1570001 \(R2020b\) Update 4. Operating System: Linux)
%%Title: Figures/Figure03.eps
%%CreationDate: 2023-04-10T17:08:40
%%Pages: (atend)
%%BoundingBox:    10     3   272   355
%%LanguageLevel: 3
%%EndComments
%%BeginProlog
%%BeginResource: procset (Apache XML Graphics Std ProcSet) 1.2 0
%%Version: 1.2 0
%%Copyright: (Copyright 2001-2003,2010 The Apache Software Foundation. License terms: http://www.apache.org/licenses/LICENSE-2.0)
/bd{bind def}bind def
/ld{load def}bd
/GR/grestore ld
/GS/gsave ld
/RM/rmoveto ld
/C/curveto ld
/t/show ld
/L/lineto ld
/ML/setmiterlimit ld
/CT/concat ld
/f/fill ld
/N/newpath ld
/S/stroke ld
/CC/setcmykcolor ld
/A/ashow ld
/cp/closepath ld
/RC/setrgbcolor ld
/LJ/setlinejoin ld
/GC/setgray ld
/LW/setlinewidth ld
/M/moveto ld
/re {4 2 roll M
1 index 0 rlineto
0 exch rlineto
neg 0 rlineto
cp } bd
/_ctm matrix def
/_tm matrix def
/BT { _ctm currentmatrix pop matrix _tm copy pop 0 0 moveto } bd
/ET { _ctm setmatrix } bd
/iTm { _ctm setmatrix _tm concat } bd
/Tm { _tm astore pop iTm 0 0 moveto } bd
/ux 0.0 def
/uy 0.0 def
/F {
  /Tp exch def
  /Tf exch def
  Tf findfont Tp scalefont setfont
  /cf Tf def  /cs Tp def
} bd
/ULS {currentpoint /uy exch def /ux exch def} bd
/ULE {
  /Tcx currentpoint pop def
  gsave
  newpath
  cf findfont cs scalefont dup
  /FontMatrix get 0 get /Ts exch def /FontInfo get dup
  /UnderlinePosition get Ts mul /To exch def
  /UnderlineThickness get Ts mul /Tt exch def
  ux uy To add moveto  Tcx uy To add lineto
  Tt setlinewidth stroke
  grestore
} bd
/OLE {
  /Tcx currentpoint pop def
  gsave
  newpath
  cf findfont cs scalefont dup
  /FontMatrix get 0 get /Ts exch def /FontInfo get dup
  /UnderlinePosition get Ts mul /To exch def
  /UnderlineThickness get Ts mul /Tt exch def
  ux uy To add cs add moveto Tcx uy To add cs add lineto
  Tt setlinewidth stroke
  grestore
} bd
/SOE {
  /Tcx currentpoint pop def
  gsave
  newpath
  cf findfont cs scalefont dup
  /FontMatrix get 0 get /Ts exch def /FontInfo get dup
  /UnderlinePosition get Ts mul /To exch def
  /UnderlineThickness get Ts mul /Tt exch def
  ux uy To add cs 10 mul 26 idiv add moveto Tcx uy To add cs 10 mul 26 idiv add lineto
  Tt setlinewidth stroke
  grestore
} bd
/QT {
/Y22 exch store
/X22 exch store
/Y21 exch store
/X21 exch store
currentpoint
/Y21 load 2 mul add 3 div exch
/X21 load 2 mul add 3 div exch
/X21 load 2 mul /X22 load add 3 div
/Y21 load 2 mul /Y22 load add 3 div
/X22 load /Y22 load curveto
} bd
/SSPD {
dup length /d exch dict def
{
/v exch def
/k exch def
currentpagedevice k known {
/cpdv currentpagedevice k get def
v cpdv ne {
/upd false def
/nullv v type /nulltype eq def
/nullcpdv cpdv type /nulltype eq def
nullv nullcpdv or
{
/upd true def
} {
/sametype v type cpdv type eq def
sametype {
v type /arraytype eq {
/vlen v length def
/cpdvlen cpdv length def
vlen cpdvlen eq {
0 1 vlen 1 sub {
/i exch def
/obj v i get def
/cpdobj cpdv i get def
obj cpdobj ne {
/upd true def
exit
} if
} for
} {
/upd true def
} ifelse
} {
v type /dicttype eq {
v {
/dv exch def
/dk exch def
/cpddv cpdv dk get def
dv cpddv ne {
/upd true def
exit
} if
} forall
} {
/upd true def
} ifelse
} ifelse
} if
} ifelse
upd true eq {
d k v put
} if
} if
} if
} forall
d length 0 gt {
d setpagedevice
} if
} bd
/RE { % /NewFontName [NewEncodingArray] /FontName RE -
  findfont dup length dict begin
  {
    1 index /FID ne
    {def} {pop pop} ifelse
  } forall
  /Encoding exch def
  /FontName 1 index def
  currentdict definefont pop
  end
} bind def
%%EndResource
%%BeginResource: procset (Apache XML Graphics EPS ProcSet) 1.0 0
%%Version: 1.0 0
%%Copyright: (Copyright 2002-2003 The Apache Software Foundation. License terms: http://www.apache.org/licenses/LICENSE-2.0)
/BeginEPSF { %def
/b4_Inc_state save def         % Save state for cleanup
/dict_count countdictstack def % Count objects on dict stack
/op_count count 1 sub def      % Count objects on operand stack
userdict begin                 % Push userdict on dict stack
/showpage { } def              % Redefine showpage, { } = null proc
0 setgray 0 setlinecap         % Prepare graphics state
1 setlinewidth 0 setlinejoin
10 setmiterlimit [ ] 0 setdash newpath
/languagelevel where           % If level not equal to 1 then
{pop languagelevel             % set strokeadjust and
1 ne                           % overprint to their defaults.
{false setstrokeadjust false setoverprint
} if
} if
} bd
/EndEPSF { %def
count op_count sub {pop} repeat            % Clean up stacks
countdictstack dict_count sub {end} repeat
b4_Inc_state restore
} bd
%%EndResource
%FOPBeginFontDict
%%IncludeResource: font Courier-Oblique
%%IncludeResource: font Courier-BoldOblique
%%IncludeResource: font Courier-Bold
%%IncludeResource: font ZapfDingbats
%%IncludeResource: font Symbol
%%IncludeResource: font Helvetica
%%IncludeResource: font Helvetica-Oblique
%%IncludeResource: font Helvetica-Bold
%%IncludeResource: font Helvetica-BoldOblique
%%IncludeResource: font Times-Roman
%%IncludeResource: font Times-Italic
%%IncludeResource: font Times-Bold
%%IncludeResource: font Times-BoldItalic
%%IncludeResource: font Courier
%FOPEndFontDict
%%BeginResource: encoding WinAnsiEncoding
/WinAnsiEncoding [
/.notdef /.notdef /.notdef /.notdef /.notdef
/.notdef /.notdef /.notdef /.notdef /.notdef
/.notdef /.notdef /.notdef /.notdef /.notdef
/.notdef /.notdef /.notdef /.notdef /.notdef
/.notdef /.notdef /.notdef /.notdef /.notdef
/.notdef /.notdef /.notdef /.notdef /.notdef
/.notdef /.notdef /space /exclam /quotedbl
/numbersign /dollar /percent /ampersand /quotesingle
/parenleft /parenright /asterisk /plus /comma
/hyphen /period /slash /zero /one
/two /three /four /five /six
/seven /eight /nine /colon /semicolon
/less /equal /greater /question /at
/A /B /C /D /E
/F /G /H /I /J
/K /L /M /N /O
/P /Q /R /S /T
/U /V /W /X /Y
/Z /bracketleft /backslash /bracketright /asciicircum
/underscore /quoteleft /a /b /c
/d /e /f /g /h
/i /j /k /l /m
/n /o /p /q /r
/s /t /u /v /w
/x /y /z /braceleft /bar
/braceright /asciitilde /bullet /Euro /bullet
/quotesinglbase /florin /quotedblbase /ellipsis /dagger
/daggerdbl /circumflex /perthousand /Scaron /guilsinglleft
/OE /bullet /Zcaron /bullet /bullet
/quoteleft /quoteright /quotedblleft /quotedblright /bullet
/endash /emdash /asciitilde /trademark /scaron
/guilsinglright /oe /bullet /zcaron /Ydieresis
/space /exclamdown /cent /sterling /currency
/yen /brokenbar /section /dieresis /copyright
/ordfeminine /guillemotleft /logicalnot /sfthyphen /registered
/macron /degree /plusminus /twosuperior /threesuperior
/acute /mu /paragraph /middot /cedilla
/onesuperior /ordmasculine /guillemotright /onequarter /onehalf
/threequarters /questiondown /Agrave /Aacute /Acircumflex
/Atilde /Adieresis /Aring /AE /Ccedilla
/Egrave /Eacute /Ecircumflex /Edieresis /Igrave
/Iacute /Icircumflex /Idieresis /Eth /Ntilde
/Ograve /Oacute /Ocircumflex /Otilde /Odieresis
/multiply /Oslash /Ugrave /Uacute /Ucircumflex
/Udieresis /Yacute /Thorn /germandbls /agrave
/aacute /acircumflex /atilde /adieresis /aring
/ae /ccedilla /egrave /eacute /ecircumflex
/edieresis /igrave /iacute /icircumflex /idieresis
/eth /ntilde /ograve /oacute /ocircumflex
/otilde /odieresis /divide /oslash /ugrave
/uacute /ucircumflex /udieresis /yacute /thorn
/ydieresis
] def
%%EndResource
%FOPBeginFontReencode
/Courier-Oblique findfont
dup length dict begin
  {1 index /FID ne {def} {pop pop} ifelse} forall
  /Encoding WinAnsiEncoding def
  currentdict
end
/Courier-Oblique exch definefont pop
/Courier-BoldOblique findfont
dup length dict begin
  {1 index /FID ne {def} {pop pop} ifelse} forall
  /Encoding WinAnsiEncoding def
  currentdict
end
/Courier-BoldOblique exch definefont pop
/Courier-Bold findfont
dup length dict begin
  {1 index /FID ne {def} {pop pop} ifelse} forall
  /Encoding WinAnsiEncoding def
  currentdict
end
/Courier-Bold exch definefont pop
/Helvetica findfont
dup length dict begin
  {1 index /FID ne {def} {pop pop} ifelse} forall
  /Encoding WinAnsiEncoding def
  currentdict
end
/Helvetica exch definefont pop
/Helvetica-Oblique findfont
dup length dict begin
  {1 index /FID ne {def} {pop pop} ifelse} forall
  /Encoding WinAnsiEncoding def
  currentdict
end
/Helvetica-Oblique exch definefont pop
/Helvetica-Bold findfont
dup length dict begin
  {1 index /FID ne {def} {pop pop} ifelse} forall
  /Encoding WinAnsiEncoding def
  currentdict
end
/Helvetica-Bold exch definefont pop
/Helvetica-BoldOblique findfont
dup length dict begin
  {1 index /FID ne {def} {pop pop} ifelse} forall
  /Encoding WinAnsiEncoding def
  currentdict
end
/Helvetica-BoldOblique exch definefont pop
/Times-Roman findfont
dup length dict begin
  {1 index /FID ne {def} {pop pop} ifelse} forall
  /Encoding WinAnsiEncoding def
  currentdict
end
/Times-Roman exch definefont pop
/Times-Italic findfont
dup length dict begin
  {1 index /FID ne {def} {pop pop} ifelse} forall
  /Encoding WinAnsiEncoding def
  currentdict
end
/Times-Italic exch definefont pop
/Times-Bold findfont
dup length dict begin
  {1 index /FID ne {def} {pop pop} ifelse} forall
  /Encoding WinAnsiEncoding def
  currentdict
end
/Times-Bold exch definefont pop
/Times-BoldItalic findfont
dup length dict begin
  {1 index /FID ne {def} {pop pop} ifelse} forall
  /Encoding WinAnsiEncoding def
  currentdict
end
/Times-BoldItalic exch definefont pop
/Courier findfont
dup length dict begin
  {1 index /FID ne {def} {pop pop} ifelse} forall
  /Encoding WinAnsiEncoding def
  currentdict
end
/Courier exch definefont pop
%FOPEndFontReencode
%%EndProlog
%%Page: 1 1
%%PageBoundingBox: 0 0 284 368
%%BeginPageSetup
[1 0 0 -1 0 368] CT
%%EndPageSetup
GS
[0.75 0 0 0.75 0 -0.25] CT
1 GC
N
0 0 378 491 re
f
GR
GS
[0.75 0 0 0.75 0 -0.25] CT
1 GC
N
72 201 M
359 201 L
359 20 L
72 20 L
cp
f
GR
GS
[0.75 0 0 0.75 0 -0.25] CT
0.149 GC
2 setlinecap
1 LJ
0.667 LW
N
72 201 M
359 201 L
S
GR
GS
[0.75 0 0 0.75 0 -0.25] CT
0.149 GC
2 setlinecap
1 LJ
0.667 LW
N
72 20 M
359 20 L
S
GR
GS
[0.75 0 0 0.75 0 -0.25] CT
0.149 GC
2 setlinecap
1 LJ
0.667 LW
N
72 201 M
72 198.13 L
S
GR
GS
[0.75 0 0 0.75 0 -0.25] CT
0.149 GC
2 setlinecap
1 LJ
0.667 LW
N
154 201 M
154 198.13 L
S
GR
GS
[0.75 0 0 0.75 0 -0.25] CT
0.149 GC
2 setlinecap
1 LJ
0.667 LW
N
236 201 M
236 198.13 L
S
GR
GS
[0.75 0 0 0.75 0 -0.25] CT
0.149 GC
2 setlinecap
1 LJ
0.667 LW
N
318 201 M
318 198.13 L
S
GR
GS
[0.75 0 0 0.75 0 -0.25] CT
0.149 GC
2 setlinecap
1 LJ
0.667 LW
N
72 20 M
72 22.87 L
S
GR
GS
[0.75 0 0 0.75 0 -0.25] CT
0.149 GC
2 setlinecap
1 LJ
0.667 LW
N
154 20 M
154 22.87 L
S
GR
GS
[0.75 0 0 0.75 0 -0.25] CT
0.149 GC
2 setlinecap
1 LJ
0.667 LW
N
236 20 M
236 22.87 L
S
GR
GS
[0.75 0 0 0.75 0 -0.25] CT
0.149 GC
2 setlinecap
1 LJ
0.667 LW
N
318 20 M
318 22.87 L
S
GR
GS
[0.75 0 0 0.75 54 154.69999] CT
0.149 GC
/Helvetica 14.667 F
GS
[1 0 0 1 0 0] CT
-14 14 moveto 
1 -1 scale
(-10) t 
GR
GR
GS
[0.75 0 0 0.75 115.5 154.69999] CT
0.149 GC
/Helvetica 14.667 F
GS
[1 0 0 1 0 0] CT
-5 14 moveto 
1 -1 scale
(0) t 
GR
GR
GS
[0.75 0 0 0.75 177 154.69999] CT
0.149 GC
/Helvetica 14.667 F
GS
[1 0 0 1 0 0] CT
-9.5 14 moveto 
1 -1 scale
(10) t 
GR
GR
GS
[0.75 0 0 0.75 238.5 154.69999] CT
0.149 GC
/Helvetica 14.667 F
GS
[1 0 0 1 0 0] CT
-9.5 14 moveto 
1 -1 scale
(20) t 
GR
GR
GS
[0.75 0 0 0.75 161.6251 169.2] CT
0.149 GC
/Helvetica 16 F
GS
[1 0 0 1 0 0] CT
-39 16 moveto 
1 -1 scale
(Time \(ms\)) t 
GR
GR
GS
[0.75 0 0 0.75 0 -0.25] CT
0.149 GC
2 setlinecap
1 LJ
0.667 LW
N
72 201 M
72 20 L
S
GR
GS
[0.75 0 0 0.75 0 -0.25] CT
0.149 GC
2 setlinecap
1 LJ
0.667 LW
N
359 201 M
359 20 L
S
GR
GS
[0.75 0 0 0.75 0 -0.25] CT
0.149 GC
2 setlinecap
1 LJ
0.667 LW
N
72 196.69 M
74.87 196.69 L
S
GR
GS
[0.75 0 0 0.75 0 -0.25] CT
0.149 GC
2 setlinecap
1 LJ
0.667 LW
N
72 153.595 M
74.87 153.595 L
S
GR
GS
[0.75 0 0 0.75 0 -0.25] CT
0.149 GC
2 setlinecap
1 LJ
0.667 LW
N
72 110.5 M
74.87 110.5 L
S
GR
GS
[0.75 0 0 0.75 0 -0.25] CT
0.149 GC
2 setlinecap
1 LJ
0.667 LW
N
72 67.405 M
74.87 67.405 L
S
GR
GS
[0.75 0 0 0.75 0 -0.25] CT
0.149 GC
2 setlinecap
1 LJ
0.667 LW
N
72 24.31 M
74.87 24.31 L
S
GR
GS
[0.75 0 0 0.75 0 -0.25] CT
0.149 GC
2 setlinecap
1 LJ
0.667 LW
N
359 196.69 M
356.13 196.69 L
S
GR
GS
[0.75 0 0 0.75 0 -0.25] CT
0.149 GC
2 setlinecap
1 LJ
0.667 LW
N
359 153.595 M
356.13 153.595 L
S
GR
GS
[0.75 0 0 0.75 0 -0.25] CT
0.149 GC
2 setlinecap
1 LJ
0.667 LW
N
359 110.5 M
356.13 110.5 L
S
GR
GS
[0.75 0 0 0.75 0 -0.25] CT
0.149 GC
2 setlinecap
1 LJ
0.667 LW
N
359 67.405 M
356.13 67.405 L
S
GR
GS
[0.75 0 0 0.75 0 -0.25] CT
0.149 GC
2 setlinecap
1 LJ
0.667 LW
N
359 24.31 M
356.13 24.31 L
S
GR
GS
[0.75 0 0 0.75 49.8 147.26786] CT
0.149 GC
/Helvetica 14.667 F
GS
[1 0 0 1 0 0] CT
-18 5 moveto 
1 -1 scale
(-1) t 
GR
GR
GS
[0.75 0 0 0.75 49.8 114.94643] CT
0.149 GC
/Helvetica 14.667 F
GS
[1 0 0 1 0 0] CT
-32 5 moveto 
1 -1 scale
(-0.5) t 
GR
GR
GS
[0.75 0 0 0.75 49.8 82.625] CT
0.149 GC
/Helvetica 14.667 F
GS
[1 0 0 1 0 0] CT
-10 5 moveto 
1 -1 scale
(0) t 
GR
GR
GS
[0.75 0 0 0.75 49.8 50.30357] CT
0.149 GC
/Helvetica 14.667 F
GS
[1 0 0 1 0 0] CT
-24 5 moveto 
1 -1 scale
(0.5) t 
GR
GR
GS
[0.75 0 0 0.75 49.8 17.98214] CT
0.149 GC
/Helvetica 14.667 F
GS
[1 0 0 1 0 0] CT
-10 5 moveto 
1 -1 scale
(1) t 
GR
GR
GS
[0 -0.75 0.75 0 22.8 82.62494] CT
0.149 GC
/Helvetica 16 F
GS
[1 0 0 1 0 0] CT
-86.5 -4 moveto 
1 -1 scale
(Normalized amplitude) t 
GR
GR
GS
[0.75 0 0 0.75 0 -0.25] CT
1 0 0 RC
1 LJ
0.667 LW
N
71.966 110.5 M
71.98 110.5 L
72.352 110.5 L
72.724 110.5 L
73.096 110.5 L
73.468 110.5 L
73.84 110.5 L
74.212 110.5 L
74.584 110.5 L
74.956 110.5 L
75.328 110.5 L
75.7 110.5 L
76.072 110.5 L
76.444 110.5 L
76.816 110.5 L
77.188 110.5 L
77.56 110.5 L
77.932 110.5 L
78.304 110.5 L
78.675 110.5 L
79.047 110.5 L
79.419 110.5 L
79.791 110.5 L
80.163 110.5 L
80.535 110.5 L
80.907 110.5 L
81.279 110.5 L
81.651 110.5 L
82.023 110.5 L
82.395 110.5 L
82.767 110.5 L
83.139 110.5 L
83.511 110.5 L
83.883 110.5 L
84.255 110.5 L
84.627 110.5 L
84.999 110.5 L
85.371 110.5 L
85.743 110.5 L
86.115 110.5 L
86.487 110.5 L
86.859 110.5 L
87.231 110.5 L
87.603 110.5 L
87.975 110.5 L
88.347 110.5 L
88.719 110.5 L
89.091 110.5 L
89.463 110.5 L
89.835 110.5 L
90.207 110.5 L
90.579 110.5 L
90.951 110.5 L
91.323 110.5 L
91.695 110.5 L
92.067 110.5 L
92.438 110.5 L
92.81 110.5 L
93.182 110.5 L
93.554 110.5 L
93.926 110.5 L
94.298 110.5 L
94.67 110.5 L
95.042 110.5 L
95.414 110.5 L
95.786 110.5 L
96.158 110.5 L
96.53 110.5 L
96.902 110.5 L
97.274 110.5 L
97.646 110.5 L
98.018 110.5 L
98.39 110.5 L
98.762 110.5 L
99.134 110.5 L
99.506 110.5 L
99.878 110.5 L
100.25 110.5 L
100.622 110.5 L
100.994 110.5 L
101.366 110.5 L
101.738 110.5 L
102.11 110.5 L
102.482 110.5 L
102.854 110.5 L
103.226 110.5 L
103.598 110.5 L
103.97 110.5 L
104.342 110.5 L
104.714 110.5 L
105.086 110.5 L
105.458 110.5 L
105.83 110.5 L
106.201 110.5 L
106.573 110.5 L
106.945 110.5 L
107.317 110.5 L
107.689 110.5 L
108.061 110.5 L
108.433 110.5 L
108.805 110.5 L
109.177 110.5 L
109.549 110.5 L
109.921 110.5 L
110.293 110.5 L
110.665 110.5 L
111.037 110.5 L
111.409 110.5 L
111.781 110.5 L
112.153 110.5 L
112.525 110.5 L
112.897 110.5 L
113.269 110.5 L
113.641 110.5 L
114.013 110.5 L
114.385 110.5 L
114.757 110.5 L
115.129 110.5 L
115.501 110.5 L
115.873 110.5 L
116.245 110.5 L
116.617 110.5 L
116.989 110.5 L
117.361 110.5 L
117.733 110.5 L
118.105 110.5 L
118.477 110.5 L
118.849 110.5 L
119.221 110.5 L
119.593 110.5 L
119.964 110.5 L
120.336 110.5 L
120.708 110.5 L
121.08 110.5 L
121.452 110.5 L
121.824 110.5 L
122.196 110.5 L
122.568 110.5 L
122.94 110.5 L
123.312 110.5 L
123.684 110.5 L
124.056 110.5 L
124.428 110.5 L
124.8 110.5 L
125.172 110.5 L
125.544 110.5 L
125.916 110.5 L
126.288 110.5 L
126.66 110.5 L
127.032 110.5 L
127.404 110.5 L
127.776 110.5 L
128.148 110.5 L
128.52 110.5 L
128.892 110.5 L
129.264 110.5 L
129.636 110.5 L
130.008 110.5 L
130.38 110.5 L
130.752 110.5 L
131.124 110.5 L
131.496 110.5 L
131.868 110.5 L
132.24 110.5 L
132.612 110.5 L
132.984 110.5 L
133.355 110.5 L
133.727 110.5 L
134.099 110.5 L
134.471 110.5 L
134.843 110.5 L
135.215 110.494 L
135.587 109.911 L
135.959 106.616 L
136.331 100.364 L
136.703 92.772 L
137.075 85.152 L
137.447 78.124 L
137.819 71.887 L
138.191 66.443 L
138.563 61.718 L
138.935 57.618 L
139.307 54.051 L
139.679 50.935 L
140.051 48.202 L
140.423 45.793 L
140.795 43.66 L
141.167 41.762 L
141.539 40.068 L
141.911 38.549 L
142.283 37.182 L
142.655 35.949 L
143.027 34.832 L
143.399 33.819 L
143.771 32.897 L
144.143 32.057 L
144.515 31.29 L
144.887 30.588 L
145.259 29.945 L
145.631 29.356 L
146.003 28.816 L
146.375 28.321 L
146.747 27.866 L
147.118 27.45 L
147.49 27.068 L
147.862 26.718 L
148.234 26.398 L
148.606 26.107 L
148.978 25.842 L
149.35 25.602 L
149.722 25.385 L
150.094 25.191 L
150.466 25.018 L
150.838 24.865 L
151.21 24.733 L
151.582 24.619 L
151.954 24.523 L
152.326 24.446 L
152.698 24.386 L
153.07 24.343 L
153.442 24.318 L
153.814 24.31 L
154.186 24.31 L
154.558 24.31 L
154.93 24.31 L
155.302 24.31 L
155.674 24.311 L
156.046 24.312 L
156.418 24.313 L
156.79 24.314 L
157.162 24.315 L
157.534 24.316 L
157.906 24.318 L
158.278 24.32 L
158.65 24.322 L
159.022 24.324 L
159.394 24.326 L
159.766 24.329 L
160.138 24.332 L
160.51 24.334 L
160.882 24.337 L
161.253 24.341 L
161.625 24.344 L
161.997 24.347 L
162.369 24.351 L
162.741 24.355 L
163.113 24.359 L
163.485 24.363 L
163.857 24.368 L
164.229 24.372 L
164.601 24.377 L
164.973 24.382 L
165.345 24.387 L
165.717 24.392 L
166.089 24.398 L
166.461 24.403 L
166.833 24.409 L
167.205 24.415 L
167.577 24.421 L
167.949 24.428 L
168.321 24.434 L
168.693 24.441 L
169.065 24.448 L
169.437 24.455 L
169.809 24.462 L
170.181 24.469 L
170.553 24.477 L
170.925 24.485 L
171.297 24.493 L
171.669 24.501 L
172.041 24.509 L
172.413 24.518 L
172.785 24.526 L
173.157 24.535 L
173.529 24.544 L
173.901 24.553 L
174.273 24.563 L
174.645 24.572 L
175.016 24.582 L
175.388 24.592 L
175.76 24.602 L
176.132 24.613 L
176.504 24.623 L
176.876 24.634 L
177.248 24.645 L
177.62 24.656 L
177.992 24.667 L
178.364 24.678 L
178.736 24.69 L
179.108 24.702 L
179.48 24.714 L
179.852 24.726 L
180.224 24.739 L
180.596 24.751 L
180.968 24.764 L
181.34 24.777 L
181.712 24.79 L
182.084 24.804 L
182.456 24.817 L
182.828 24.831 L
183.2 24.845 L
183.572 24.859 L
183.944 24.873 L
184.316 24.888 L
184.688 24.903 L
185.06 24.918 L
185.432 24.933 L
185.804 24.948 L
186.176 24.964 L
186.548 24.98 L
186.92 24.996 L
187.292 25.012 L
187.664 25.028 L
188.036 25.045 L
188.408 25.062 L
188.779 25.079 L
189.151 25.096 L
189.523 25.113 L
189.895 25.131 L
190.267 25.149 L
190.639 25.167 L
191.011 25.185 L
191.383 25.204 L
191.755 25.222 L
192.127 25.241 L
192.499 25.261 L
192.871 25.28 L
193.243 25.3 L
193.615 25.319 L
193.987 25.339 L
194.359 25.36 L
194.731 25.38 L
195.103 25.401 L
195.475 25.422 L
195.847 25.443 L
196.219 25.464 L
196.591 25.486 L
196.963 25.508 L
197.335 25.53 L
197.707 25.552 L
198.079 25.575 L
198.451 25.598 L
198.823 25.621 L
199.195 25.644 L
199.567 25.668 L
199.939 25.692 L
200.311 25.716 L
200.683 25.74 L
201.055 25.764 L
201.427 25.789 L
201.799 25.814 L
202.17 25.839 L
202.542 25.865 L
202.914 25.891 L
203.286 25.917 L
203.658 25.943 L
204.03 25.97 L
204.402 25.996 L
204.774 26.023 L
205.146 26.051 L
205.518 26.078 L
205.89 26.106 L
206.262 26.134 L
206.634 26.163 L
207.006 26.191 L
207.378 26.22 L
207.75 26.249 L
208.122 26.279 L
208.494 26.309 L
208.866 26.339 L
209.238 26.369 L
209.61 26.4 L
209.982 26.431 L
210.354 26.462 L
210.726 26.493 L
211.098 26.525 L
211.47 26.557 L
211.842 26.589 L
212.214 26.622 L
212.586 26.655 L
212.958 26.688 L
213.33 26.722 L
213.702 26.756 L
214.074 26.79 L
214.446 26.824 L
214.818 26.859 L
215.19 26.894 L
215.562 26.93 L
215.933 26.965 L
216.305 27.001 L
216.677 27.038 L
217.049 27.074 L
217.421 27.111 L
217.793 27.149 L
218.165 27.186 L
218.537 27.225 L
218.909 27.263 L
219.281 27.302 L
219.653 27.341 L
220.025 27.38 L
220.397 27.42 L
220.769 27.46 L
221.141 27.5 L
221.513 27.541 L
221.885 27.582 L
222.257 27.624 L
222.629 27.666 L
223.001 27.708 L
223.373 27.751 L
223.745 27.794 L
224.117 27.837 L
224.489 27.881 L
224.861 27.925 L
225.233 27.969 L
225.605 28.014 L
225.977 28.06 L
226.349 28.105 L
226.721 28.151 L
227.093 28.198 L
227.465 28.245 L
227.837 28.292 L
228.209 28.34 L
228.581 28.388 L
228.953 28.437 L
229.325 28.486 L
229.696 28.535 L
230.068 28.585 L
230.44 28.635 L
230.812 28.686 L
231.184 28.737 L
231.556 28.789 L
231.928 28.841 L
232.3 28.893 L
232.672 28.946 L
233.044 29 L
233.416 29.053 L
233.788 29.108 L
234.16 29.163 L
234.532 29.218 L
234.904 29.274 L
235.276 29.33 L
235.648 29.387 L
236.02 29.444 L
236.392 29.502 L
236.764 29.56 L
237.136 29.619 L
237.508 29.678 L
237.88 29.738 L
238.252 29.799 L
238.624 29.859 L
238.996 29.921 L
239.368 29.983 L
239.74 30.045 L
240.112 30.108 L
240.484 30.172 L
240.856 30.236 L
241.228 30.301 L
241.6 30.366 L
241.972 30.432 L
242.344 30.499 L
242.716 30.566 L
243.088 30.634 L
243.459 30.702 L
243.831 30.771 L
244.203 30.84 L
244.575 30.91 L
244.947 30.981 L
245.319 31.053 L
245.691 31.125 L
246.063 31.197 L
246.435 31.271 L
246.807 31.345 L
247.179 31.419 L
247.551 31.495 L
247.923 31.571 L
248.295 31.648 L
248.667 31.725 L
249.039 31.803 L
249.411 31.882 L
249.783 31.962 L
250.155 32.042 L
250.527 32.123 L
250.899 32.205 L
251.271 32.287 L
251.643 32.371 L
252.015 32.455 L
252.387 32.539 L
252.759 32.625 L
253.131 32.712 L
253.503 32.799 L
253.875 32.887 L
254.247 32.976 L
254.619 33.065 L
254.991 33.156 L
255.363 33.247 L
255.735 33.34 L
256.107 33.433 L
256.479 33.527 L
256.85 33.622 L
257.222 33.718 L
257.594 33.814 L
257.966 33.912 L
258.338 34.011 L
258.71 34.11 L
259.082 34.211 L
259.454 34.312 L
259.826 34.415 L
260.198 34.518 L
260.57 34.623 L
260.942 34.728 L
261.314 34.835 L
261.686 34.942 L
262.058 35.051 L
262.43 35.161 L
262.802 35.271 L
263.174 35.383 L
263.546 35.496 L
263.918 35.61 L
264.29 35.726 L
264.662 35.842 L
265.034 35.96 L
265.406 36.079 L
265.778 36.199 L
266.15 36.32 L
266.522 36.442 L
266.894 36.566 L
267.266 36.691 L
267.638 36.817 L
268.01 36.944 L
268.382 37.073 L
268.754 37.203 L
269.126 37.335 L
269.498 37.468 L
269.87 37.602 L
270.242 37.738 L
270.613 37.875 L
270.985 38.013 L
271.357 38.153 L
271.729 38.295 L
272.101 38.438 L
272.473 38.582 L
272.845 38.729 L
273.217 38.876 L
273.589 39.025 L
273.961 39.176 L
274.333 39.329 L
274.705 39.483 L
275.077 39.639 L
275.449 39.796 L
275.821 39.956 L
276.193 40.117 L
276.565 40.279 L
276.937 40.444 L
277.309 40.61 L
277.681 40.779 L
278.053 40.949 L
278.425 41.121 L
278.797 41.295 L
279.169 41.471 L
279.541 41.649 L
279.913 41.829 L
280.285 42.011 L
280.657 42.196 L
281.029 42.382 L
281.401 42.57 L
281.773 42.761 L
282.145 42.954 L
282.517 43.149 L
282.889 43.347 L
283.261 43.547 L
283.633 43.749 L
284.005 43.953 L
284.376 44.16 L
284.748 44.37 L
285.12 44.582 L
285.492 44.797 L
285.864 45.014 L
286.236 45.234 L
286.608 45.456 L
286.98 45.681 L
287.352 45.909 L
287.724 46.14 L
288.096 46.374 L
288.468 46.61 L
288.84 46.85 L
289.212 47.092 L
289.584 47.338 L
289.956 47.587 L
290.328 47.839 L
290.7 48.094 L
291.072 48.352 L
291.444 48.614 L
291.816 48.879 L
292.188 49.147 L
292.56 49.419 L
292.932 49.694 L
293.304 49.973 L
293.676 50.256 L
294.048 50.542 L
294.42 50.832 L
294.792 51.126 L
295.164 51.424 L
295.536 51.726 L
295.908 52.032 L
296.28 52.342 L
296.652 52.656 L
297.024 52.975 L
297.396 53.298 L
297.768 53.625 L
298.139 53.956 L
298.511 54.293 L
298.883 54.633 L
299.255 54.979 L
299.627 55.329 L
299.999 55.685 L
300.371 56.045 L
300.743 56.41 L
301.115 56.78 L
301.487 57.156 L
301.859 57.536 L
302.231 57.923 L
302.603 58.314 L
302.975 58.711 L
303.347 59.114 L
303.719 59.523 L
304.091 59.937 L
304.463 60.358 L
304.835 60.784 L
305.207 61.216 L
305.579 61.655 L
305.951 62.1 L
306.323 62.552 L
306.695 63.01 L
307.067 63.474 L
307.439 63.945 L
307.811 64.424 L
308.183 64.909 L
308.555 65.401 L
308.927 65.9 L
309.299 66.406 L
309.671 66.92 L
310.043 67.441 L
310.415 67.969 L
310.787 68.505 L
311.159 69.049 L
311.531 69.601 L
311.902 70.16 L
312.274 70.727 L
312.646 71.302 L
313.018 71.886 L
313.39 72.477 L
313.762 73.076 L
314.134 73.684 L
314.506 74.3 L
314.878 74.924 L
315.25 75.556 L
315.622 76.197 L
315.994 76.846 L
316.366 77.503 L
316.738 78.169 L
317.11 78.842 L
317.482 79.524 L
317.854 80.214 L
318.226 80.911 L
318.598 81.617 L
318.97 82.33 L
319.342 83.05 L
319.714 83.778 L
320.086 84.512 L
320.458 85.253 L
320.83 86.001 L
321.202 86.754 L
321.574 87.513 L
321.946 88.277 L
322.318 89.045 L
322.69 89.818 L
323.062 90.594 L
323.434 91.372 L
323.806 92.152 L
324.178 92.933 L
324.55 93.715 L
324.922 94.496 L
325.294 95.274 L
325.665 96.05 L
326.037 96.821 L
326.409 97.587 L
326.781 98.345 L
327.153 99.095 L
327.525 99.835 L
327.897 100.563 L
328.269 101.278 L
328.641 101.977 L
329.013 102.659 L
329.385 103.322 L
329.757 103.964 L
330.129 104.583 L
330.501 105.176 L
330.873 105.743 L
331.245 106.281 L
331.617 106.788 L
331.989 107.264 L
332.361 107.705 L
332.733 108.113 L
333.105 108.485 L
333.477 108.82 L
333.849 109.12 L
334.221 109.385 L
334.593 109.615 L
334.965 109.811 L
335.337 109.975 L
335.709 110.11 L
336.081 110.218 L
336.453 110.303 L
336.825 110.367 L
337.197 110.414 L
337.569 110.447 L
337.941 110.469 L
338.313 110.483 L
338.685 110.491 L
339.057 110.496 L
339.428 110.498 L
339.8 110.499 L
340.172 110.5 L
340.544 110.5 L
340.916 110.5 L
341.288 110.5 L
341.66 110.5 L
342.032 110.5 L
342.404 110.5 L
342.776 110.5 L
343.148 110.5 L
343.52 110.5 L
343.892 110.5 L
344.264 110.5 L
344.636 110.5 L
345.008 110.5 L
345.38 110.5 L
345.752 110.5 L
346.124 110.5 L
346.496 110.5 L
346.868 110.5 L
347.24 110.5 L
347.612 110.5 L
347.984 110.5 L
348.356 110.5 L
348.728 110.5 L
349.1 110.5 L
349.472 110.5 L
349.844 110.5 L
350.216 110.5 L
350.588 110.5 L
350.96 110.5 L
351.332 110.5 L
351.704 110.5 L
352.076 110.5 L
352.448 110.5 L
352.82 110.5 L
353.191 110.5 L
353.563 110.5 L
353.935 110.5 L
354.307 110.5 L
354.679 110.5 L
355.051 110.5 L
355.423 110.5 L
355.795 110.5 L
356.167 110.5 L
356.539 110.5 L
356.911 110.5 L
357.283 110.5 L
357.655 110.5 L
358.027 110.5 L
358.399 110.5 L
358.771 110.5 L
359.034 110.5 L
S
GR
GS
[0.75 0 0 0.75 0 -0.25] CT
0 1 0 RC
1 LJ
0.667 LW
N
71.966 110.5 M
71.98 110.5 L
72.352 110.5 L
72.724 110.5 L
73.096 110.5 L
73.468 110.5 L
73.84 110.5 L
74.212 110.5 L
74.584 110.5 L
74.956 110.5 L
75.328 110.5 L
75.7 110.5 L
76.072 110.5 L
76.444 110.5 L
76.816 110.5 L
77.188 110.5 L
77.56 110.5 L
77.932 110.5 L
78.304 110.5 L
78.675 110.5 L
79.047 110.5 L
79.419 110.5 L
79.791 110.5 L
80.163 110.5 L
80.535 110.5 L
80.907 110.5 L
81.279 110.5 L
81.651 110.5 L
82.023 110.5 L
82.395 110.5 L
82.767 110.5 L
83.139 110.5 L
83.511 110.5 L
83.883 110.5 L
84.255 110.5 L
84.627 110.5 L
84.999 110.5 L
85.371 110.5 L
85.743 110.5 L
86.115 110.5 L
86.487 110.5 L
86.859 110.5 L
87.231 110.5 L
87.603 110.5 L
87.975 110.5 L
88.347 110.5 L
88.719 110.5 L
89.091 110.5 L
89.463 110.5 L
89.835 110.5 L
90.207 110.5 L
90.579 110.5 L
90.951 110.5 L
91.323 110.5 L
91.695 110.5 L
92.067 110.5 L
92.438 110.5 L
92.81 110.5 L
93.182 110.5 L
93.554 110.5 L
93.926 110.5 L
94.298 110.5 L
94.67 110.5 L
95.042 110.5 L
95.414 110.5 L
95.786 110.5 L
96.158 110.5 L
96.53 110.5 L
96.902 110.5 L
97.274 110.5 L
97.646 110.5 L
98.018 110.5 L
98.39 110.5 L
98.762 110.5 L
99.134 110.5 L
99.506 110.5 L
99.878 110.5 L
100.25 110.5 L
100.622 110.5 L
100.994 110.5 L
101.366 110.5 L
101.738 110.5 L
102.11 110.5 L
102.482 110.5 L
102.854 110.5 L
103.226 110.5 L
103.598 110.5 L
103.97 110.5 L
104.342 110.5 L
104.714 110.5 L
105.086 110.5 L
105.458 110.5 L
105.83 110.5 L
106.201 110.5 L
106.573 110.5 L
106.945 110.5 L
107.317 110.5 L
107.689 110.5 L
108.061 110.5 L
108.433 110.5 L
108.805 110.5 L
109.177 110.5 L
109.549 110.5 L
109.921 110.5 L
110.293 110.5 L
110.665 110.5 L
111.037 110.5 L
111.409 110.5 L
111.781 110.5 L
112.153 110.5 L
112.525 110.5 L
112.897 110.5 L
113.269 110.5 L
113.641 110.5 L
114.013 110.5 L
114.385 110.5 L
114.757 110.5 L
115.129 110.5 L
115.501 110.5 L
115.873 110.5 L
116.245 110.5 L
116.617 110.5 L
116.989 110.5 L
117.361 110.5 L
117.733 110.5 L
118.105 110.5 L
118.477 110.5 L
118.849 110.5 L
119.221 110.5 L
119.593 110.5 L
119.964 110.5 L
120.336 110.5 L
120.708 110.5 L
121.08 110.5 L
121.452 110.5 L
121.824 110.5 L
122.196 110.5 L
122.568 110.5 L
122.94 110.5 L
123.312 110.5 L
123.684 110.5 L
124.056 110.5 L
124.428 110.5 L
124.8 110.5 L
125.172 110.5 L
125.544 110.5 L
125.916 110.5 L
126.288 110.5 L
126.66 110.5 L
127.032 110.5 L
127.404 110.5 L
127.776 110.5 L
128.148 110.5 L
128.52 110.5 L
128.892 110.5 L
129.264 110.5 L
129.636 110.5 L
130.008 110.5 L
130.38 110.5 L
130.752 110.5 L
131.124 110.5 L
131.496 110.5 L
131.868 110.5 L
132.24 110.5 L
132.612 110.5 L
132.984 110.5 L
133.355 110.5 L
133.727 110.5 L
134.099 110.5 L
134.471 110.5 L
134.843 110.5 L
135.215 110.494 L
135.587 109.911 L
135.959 106.616 L
136.331 100.364 L
136.703 92.772 L
137.075 85.152 L
137.447 78.124 L
137.819 71.887 L
138.191 66.443 L
138.563 61.718 L
138.935 57.618 L
139.307 54.051 L
139.679 50.935 L
140.051 48.202 L
140.423 45.793 L
140.795 43.66 L
141.167 41.762 L
141.539 40.068 L
141.911 38.549 L
142.283 37.182 L
142.655 35.949 L
143.027 34.832 L
143.399 33.819 L
143.771 32.897 L
144.143 32.057 L
144.515 31.29 L
144.887 30.588 L
145.259 29.945 L
145.631 29.356 L
146.003 28.816 L
146.375 28.321 L
146.747 27.866 L
147.118 27.45 L
147.49 27.068 L
147.862 26.718 L
148.234 26.398 L
148.606 26.107 L
148.978 25.842 L
149.35 25.602 L
149.722 25.385 L
150.094 25.191 L
150.466 25.018 L
150.838 24.865 L
151.21 24.733 L
151.582 24.619 L
151.954 24.523 L
152.326 24.446 L
152.698 24.386 L
153.07 24.343 L
153.442 24.318 L
153.814 24.31 L
154.186 24.31 L
154.558 24.312 L
154.93 24.318 L
155.302 24.329 L
155.674 24.344 L
156.046 24.363 L
156.418 24.387 L
156.79 24.415 L
157.162 24.448 L
157.534 24.485 L
157.906 24.526 L
158.278 24.572 L
158.65 24.623 L
159.022 24.678 L
159.394 24.739 L
159.766 24.804 L
160.138 24.873 L
160.51 24.948 L
160.882 25.028 L
161.253 25.113 L
161.625 25.204 L
161.997 25.3 L
162.369 25.401 L
162.741 25.508 L
163.113 25.621 L
163.485 25.74 L
163.857 25.865 L
164.229 25.996 L
164.601 26.134 L
164.973 26.279 L
165.345 26.431 L
165.717 26.589 L
166.089 26.756 L
166.461 26.93 L
166.833 27.111 L
167.205 27.302 L
167.577 27.5 L
167.949 27.708 L
168.321 27.925 L
168.693 28.151 L
169.065 28.388 L
169.437 28.635 L
169.809 28.893 L
170.181 29.163 L
170.553 29.444 L
170.925 29.738 L
171.297 30.045 L
171.669 30.366 L
172.041 30.702 L
172.413 31.053 L
172.785 31.419 L
173.157 31.803 L
173.529 32.205 L
173.901 32.625 L
174.273 33.065 L
174.645 33.527 L
175.016 34.011 L
175.388 34.518 L
175.76 35.051 L
176.132 35.61 L
176.504 36.199 L
176.876 36.817 L
177.248 37.468 L
177.62 38.153 L
177.992 38.876 L
178.364 39.639 L
178.736 40.444 L
179.108 41.295 L
179.48 42.196 L
179.852 43.149 L
180.224 44.16 L
180.596 45.234 L
180.968 46.374 L
181.34 47.587 L
181.712 48.879 L
182.084 50.256 L
182.456 51.726 L
182.828 53.298 L
183.2 54.979 L
183.572 56.78 L
183.944 58.711 L
184.316 60.784 L
184.688 63.01 L
185.06 65.401 L
185.432 67.969 L
185.804 70.727 L
186.176 73.684 L
186.548 76.846 L
186.92 80.214 L
187.292 83.778 L
187.664 87.513 L
188.036 91.372 L
188.408 95.274 L
188.779 99.095 L
189.151 102.659 L
189.523 105.743 L
189.895 108.113 L
190.267 109.615 L
190.639 110.303 L
191.011 110.483 L
191.383 110.5 L
191.755 110.5 L
192.127 110.5 L
192.499 110.5 L
192.871 110.5 L
193.243 110.5 L
193.615 110.5 L
193.987 110.5 L
194.359 110.5 L
194.731 110.5 L
195.103 110.5 L
195.475 110.5 L
195.847 110.5 L
196.219 110.5 L
196.591 110.5 L
196.963 110.5 L
197.335 110.5 L
197.707 110.5 L
198.079 110.5 L
198.451 110.5 L
198.823 110.5 L
199.195 110.5 L
199.567 110.5 L
199.939 110.5 L
200.311 110.5 L
200.683 110.5 L
201.055 110.5 L
201.427 110.5 L
201.799 110.5 L
202.17 110.5 L
202.542 110.5 L
202.914 110.5 L
203.286 110.5 L
203.658 110.5 L
204.03 110.5 L
204.402 110.5 L
204.774 110.5 L
205.146 110.5 L
205.518 110.5 L
205.89 110.5 L
206.262 110.5 L
206.634 110.5 L
207.006 110.5 L
207.378 110.5 L
207.75 110.5 L
208.122 110.5 L
208.494 110.5 L
208.866 110.5 L
209.238 110.5 L
209.61 110.5 L
209.982 110.5 L
210.354 110.5 L
210.726 110.5 L
211.098 110.5 L
211.47 110.5 L
211.842 110.5 L
212.214 110.5 L
212.586 110.5 L
212.958 110.5 L
213.33 110.5 L
213.702 110.5 L
214.074 110.5 L
214.446 110.5 L
214.818 110.5 L
215.19 110.5 L
215.562 110.5 L
215.933 110.5 L
216.305 110.5 L
216.677 110.5 L
217.049 110.5 L
217.421 110.5 L
217.793 110.5 L
218.165 110.5 L
218.537 110.5 L
218.909 110.5 L
219.281 110.5 L
219.653 110.5 L
220.025 110.5 L
220.397 110.5 L
220.769 110.5 L
221.141 110.5 L
221.513 110.5 L
221.885 110.5 L
222.257 110.5 L
222.629 110.5 L
223.001 110.5 L
223.373 110.5 L
223.745 110.5 L
224.117 110.5 L
224.489 110.5 L
224.861 110.5 L
225.233 110.5 L
225.605 110.5 L
225.977 110.5 L
226.349 110.5 L
226.721 110.5 L
227.093 110.5 L
227.465 110.5 L
227.837 110.5 L
228.209 110.5 L
228.581 110.5 L
228.953 110.5 L
229.325 110.5 L
229.696 110.5 L
230.068 110.5 L
230.44 110.5 L
230.812 110.5 L
231.184 110.5 L
231.556 110.5 L
231.928 110.5 L
232.3 110.5 L
232.672 110.5 L
233.044 110.5 L
233.416 110.5 L
233.788 110.5 L
234.16 110.5 L
234.532 110.5 L
234.904 110.5 L
235.276 110.5 L
235.648 110.5 L
236.02 110.5 L
236.392 110.5 L
236.764 110.5 L
237.136 110.5 L
237.508 110.5 L
237.88 110.5 L
238.252 110.5 L
238.624 110.5 L
238.996 110.5 L
239.368 110.5 L
239.74 110.5 L
240.112 110.5 L
240.484 110.5 L
240.856 110.5 L
241.228 110.5 L
241.6 110.5 L
241.972 110.5 L
242.344 110.5 L
242.716 110.5 L
243.088 110.5 L
243.459 110.5 L
243.831 110.5 L
244.203 110.5 L
244.575 110.5 L
244.947 110.5 L
245.319 110.5 L
245.691 110.5 L
246.063 110.5 L
246.435 110.5 L
246.807 110.5 L
247.179 110.5 L
247.551 110.5 L
247.923 110.5 L
248.295 110.5 L
248.667 110.5 L
249.039 110.5 L
249.411 110.5 L
249.783 110.5 L
250.155 110.5 L
250.527 110.5 L
250.899 110.5 L
251.271 110.5 L
251.643 110.5 L
252.015 110.5 L
252.387 110.5 L
252.759 110.5 L
253.131 110.5 L
253.503 110.5 L
253.875 110.5 L
254.247 110.5 L
254.619 110.5 L
254.991 110.5 L
255.363 110.5 L
255.735 110.5 L
256.107 110.5 L
256.479 110.5 L
256.85 110.5 L
257.222 110.5 L
257.594 110.5 L
257.966 110.5 L
258.338 110.5 L
258.71 110.5 L
259.082 110.5 L
259.454 110.5 L
259.826 110.5 L
260.198 110.5 L
260.57 110.5 L
260.942 110.5 L
261.314 110.5 L
261.686 110.5 L
262.058 110.5 L
262.43 110.5 L
262.802 110.5 L
263.174 110.5 L
263.546 110.5 L
263.918 110.5 L
264.29 110.5 L
264.662 110.5 L
265.034 110.5 L
265.406 110.5 L
265.778 110.5 L
266.15 110.5 L
266.522 110.5 L
266.894 110.5 L
267.266 110.5 L
267.638 110.5 L
268.01 110.5 L
268.382 110.5 L
268.754 110.5 L
269.126 110.5 L
269.498 110.5 L
269.87 110.5 L
270.242 110.5 L
270.613 110.5 L
270.985 110.5 L
271.357 110.5 L
271.729 110.5 L
272.101 110.5 L
272.473 110.5 L
272.845 110.5 L
273.217 110.5 L
273.589 110.5 L
273.961 110.5 L
274.333 110.5 L
274.705 110.5 L
275.077 110.5 L
275.449 110.5 L
275.821 110.5 L
276.193 110.5 L
276.565 110.5 L
276.937 110.5 L
277.309 110.5 L
277.681 110.5 L
278.053 110.5 L
278.425 110.5 L
278.797 110.5 L
279.169 110.5 L
279.541 110.5 L
279.913 110.5 L
280.285 110.5 L
280.657 110.5 L
281.029 110.5 L
281.401 110.5 L
281.773 110.5 L
282.145 110.5 L
282.517 110.5 L
282.889 110.5 L
283.261 110.5 L
283.633 110.5 L
284.005 110.5 L
284.376 110.5 L
284.748 110.5 L
285.12 110.5 L
285.492 110.5 L
285.864 110.5 L
286.236 110.5 L
286.608 110.5 L
286.98 110.5 L
287.352 110.5 L
287.724 110.5 L
288.096 110.5 L
288.468 110.5 L
288.84 110.5 L
289.212 110.5 L
289.584 110.5 L
289.956 110.5 L
290.328 110.5 L
290.7 110.5 L
291.072 110.5 L
291.444 110.5 L
291.816 110.5 L
292.188 110.5 L
292.56 110.5 L
292.932 110.5 L
293.304 110.5 L
293.676 110.5 L
294.048 110.5 L
294.42 110.5 L
294.792 110.5 L
295.164 110.5 L
295.536 110.5 L
295.908 110.5 L
296.28 110.5 L
296.652 110.5 L
297.024 110.5 L
297.396 110.5 L
297.768 110.5 L
298.139 110.5 L
298.511 110.5 L
298.883 110.5 L
299.255 110.5 L
299.627 110.5 L
299.999 110.5 L
300.371 110.5 L
300.743 110.5 L
301.115 110.5 L
301.487 110.5 L
301.859 110.5 L
302.231 110.5 L
302.603 110.5 L
302.975 110.5 L
303.347 110.5 L
303.719 110.5 L
304.091 110.5 L
304.463 110.5 L
304.835 110.5 L
305.207 110.5 L
305.579 110.5 L
305.951 110.5 L
306.323 110.5 L
306.695 110.5 L
307.067 110.5 L
307.439 110.5 L
307.811 110.5 L
308.183 110.5 L
308.555 110.5 L
308.927 110.5 L
309.299 110.5 L
309.671 110.5 L
310.043 110.5 L
310.415 110.5 L
310.787 110.5 L
311.159 110.5 L
311.531 110.5 L
311.902 110.5 L
312.274 110.5 L
312.646 110.5 L
313.018 110.5 L
313.39 110.5 L
313.762 110.5 L
314.134 110.5 L
314.506 110.5 L
314.878 110.5 L
315.25 110.5 L
315.622 110.5 L
315.994 110.5 L
316.366 110.5 L
316.738 110.5 L
317.11 110.5 L
317.482 110.5 L
317.854 110.5 L
318.226 110.5 L
318.598 110.5 L
318.97 110.5 L
319.342 110.5 L
319.714 110.5 L
320.086 110.5 L
320.458 110.5 L
320.83 110.5 L
321.202 110.5 L
321.574 110.5 L
321.946 110.5 L
322.318 110.5 L
322.69 110.5 L
323.062 110.5 L
323.434 110.5 L
323.806 110.5 L
324.178 110.5 L
324.55 110.5 L
324.922 110.5 L
325.294 110.5 L
325.665 110.5 L
326.037 110.5 L
326.409 110.5 L
326.781 110.5 L
327.153 110.5 L
327.525 110.5 L
327.897 110.5 L
328.269 110.5 L
328.641 110.5 L
329.013 110.5 L
329.385 110.5 L
329.757 110.5 L
330.129 110.5 L
330.501 110.5 L
330.873 110.5 L
331.245 110.5 L
331.617 110.5 L
331.989 110.5 L
332.361 110.5 L
332.733 110.5 L
333.105 110.5 L
333.477 110.5 L
333.849 110.5 L
334.221 110.5 L
334.593 110.5 L
334.965 110.5 L
335.337 110.5 L
335.709 110.5 L
336.081 110.5 L
336.453 110.5 L
336.825 110.5 L
337.197 110.5 L
337.569 110.5 L
337.941 110.5 L
338.313 110.5 L
338.685 110.5 L
339.057 110.5 L
339.428 110.5 L
339.8 110.5 L
340.172 110.5 L
340.544 110.5 L
340.916 110.5 L
341.288 110.5 L
341.66 110.5 L
342.032 110.5 L
342.404 110.5 L
342.776 110.5 L
343.148 110.5 L
343.52 110.5 L
343.892 110.5 L
344.264 110.5 L
344.636 110.5 L
345.008 110.5 L
345.38 110.5 L
345.752 110.5 L
346.124 110.5 L
346.496 110.5 L
346.868 110.5 L
347.24 110.5 L
347.612 110.5 L
347.984 110.5 L
348.356 110.5 L
348.728 110.5 L
349.1 110.5 L
349.472 110.5 L
349.844 110.5 L
350.216 110.5 L
350.588 110.5 L
350.96 110.5 L
351.332 110.5 L
351.704 110.5 L
352.076 110.5 L
352.448 110.5 L
352.82 110.5 L
353.191 110.5 L
353.563 110.5 L
353.935 110.5 L
354.307 110.5 L
354.679 110.5 L
355.051 110.5 L
355.423 110.5 L
355.795 110.5 L
356.167 110.5 L
356.539 110.5 L
356.911 110.5 L
357.283 110.5 L
357.655 110.5 L
358.027 110.5 L
358.399 110.5 L
358.771 110.5 L
359.034 110.5 L
S
GR
GS
[0.75 0 0 0.75 0 -0.25] CT
1 LJ
1.6 LW
N
71.966 110.5 M
71.98 110.5 L
72.352 110.5 L
72.724 110.5 L
73.096 110.5 L
73.468 110.5 L
73.84 110.5 L
74.212 110.5 L
74.584 110.5 L
74.956 110.5 L
75.328 110.5 L
75.7 110.5 L
76.072 110.5 L
76.444 110.5 L
76.816 110.5 L
77.188 110.5 L
77.56 110.5 L
77.932 110.5 L
78.304 110.5 L
78.675 110.5 L
79.047 110.5 L
79.419 110.5 L
79.791 110.5 L
80.163 110.5 L
80.535 110.5 L
80.907 110.5 L
81.279 110.5 L
81.651 110.5 L
82.023 110.5 L
82.395 110.5 L
82.767 110.5 L
83.139 110.5 L
83.511 110.5 L
83.883 110.5 L
84.255 110.5 L
84.627 110.5 L
84.999 110.5 L
85.371 110.5 L
85.743 110.5 L
86.115 110.5 L
86.487 110.5 L
86.859 110.5 L
87.231 110.5 L
87.603 110.5 L
87.975 110.5 L
88.347 110.5 L
88.719 110.5 L
89.091 110.5 L
89.463 110.5 L
89.835 110.5 L
90.207 110.5 L
90.579 110.5 L
90.951 110.5 L
91.323 110.5 L
91.695 110.5 L
92.067 110.5 L
92.438 110.5 L
92.81 110.5 L
93.182 110.5 L
93.554 110.5 L
93.926 110.5 L
94.298 110.5 L
94.67 110.5 L
95.042 110.5 L
95.414 110.5 L
95.786 110.5 L
96.158 110.5 L
96.53 110.5 L
96.902 110.5 L
97.274 110.5 L
97.646 110.5 L
98.018 110.5 L
98.39 110.5 L
98.762 110.5 L
99.134 110.5 L
99.506 110.5 L
99.878 110.5 L
100.25 110.5 L
100.622 110.5 L
100.994 110.5 L
101.366 110.5 L
101.738 110.5 L
102.11 110.5 L
102.482 110.5 L
102.854 110.5 L
103.226 110.5 L
103.598 110.5 L
103.97 110.5 L
104.342 110.5 L
104.714 110.5 L
105.086 110.5 L
105.458 110.5 L
105.83 110.5 L
106.201 110.5 L
106.573 110.5 L
106.945 110.5 L
107.317 110.5 L
107.689 110.5 L
108.061 110.5 L
108.433 110.5 L
108.805 110.5 L
109.177 110.5 L
109.549 110.5 L
109.921 110.5 L
110.293 110.5 L
110.665 110.5 L
111.037 110.5 L
111.409 110.5 L
111.781 110.5 L
112.153 110.5 L
112.525 110.5 L
112.897 110.5 L
113.269 110.5 L
113.641 110.5 L
114.013 110.5 L
114.385 110.5 L
114.757 110.5 L
115.129 110.5 L
115.501 110.5 L
115.873 110.5 L
116.245 110.5 L
116.617 110.5 L
116.989 110.5 L
117.361 110.5 L
117.733 110.5 L
118.105 110.5 L
118.477 110.5 L
118.849 110.5 L
119.221 110.5 L
119.593 110.5 L
119.964 110.5 L
120.336 110.5 L
120.708 110.5 L
121.08 110.5 L
121.452 110.5 L
121.824 110.5 L
122.196 110.5 L
122.568 110.5 L
122.94 110.5 L
123.312 110.5 L
123.684 110.5 L
124.056 110.5 L
124.428 110.5 L
124.8 110.5 L
125.172 110.5 L
125.544 110.5 L
125.916 110.5 L
126.288 110.5 L
126.66 110.5 L
127.032 110.5 L
127.404 110.5 L
127.776 110.5 L
128.148 110.5 L
128.52 110.5 L
128.892 110.5 L
129.264 110.5 L
129.636 110.5 L
130.008 110.5 L
130.38 110.5 L
130.752 110.5 L
131.124 110.5 L
131.496 110.5 L
131.868 110.5 L
132.24 110.5 L
132.612 110.5 L
132.984 110.5 L
133.355 110.5 L
133.727 110.5 L
134.099 110.5 L
134.471 110.5 L
134.843 110.5 L
135.215 110.5 L
135.587 110.491 L
135.959 110.41 L
136.331 110.23 L
136.703 110.051 L
137.075 109.963 L
137.447 109.943 L
137.819 109.881 L
138.191 109.704 L
138.563 109.43 L
138.935 109.252 L
139.307 109.41 L
139.679 109.987 L
140.051 110.491 L
140.423 110.087 L
140.795 108.308 L
141.167 105.9 L
141.539 104.875 L
141.911 106.963 L
142.283 111.85 L
142.655 116.58 L
143.027 117.502 L
143.399 113.233 L
143.771 106.349 L
144.143 101.612 L
144.515 102.289 L
144.887 107.69 L
145.259 114.168 L
145.631 118.983 L
146.003 122.566 L
146.375 126.997 L
146.747 131.596 L
147.118 130.589 L
147.49 116.344 L
147.862 86.726 L
148.234 50.384 L
148.606 24.319 L
148.978 24.31 L
149.35 54.349 L
149.722 103.567 L
150.094 152.597 L
150.466 184.992 L
150.838 195.438 L
151.21 189.669 L
151.582 177.808 L
151.954 166.901 L
152.326 158.036 L
152.698 148.436 L
153.07 135.711 L
153.442 120.169 L
153.814 104.415 L
154.186 91.359 L
154.558 82.582 L
154.93 78.117 L
155.302 76.851 L
155.674 77.242 L
156.046 77.871 L
156.418 78.035 L
156.79 78.036 L
157.162 78.947 L
157.534 81.732 L
157.906 86.349 L
158.278 91.73 L
158.65 96.47 L
159.022 99.923 L
159.394 102.495 L
159.766 105.072 L
160.138 108.214 L
160.51 111.713 L
160.882 114.963 L
161.253 117.508 L
161.625 119.327 L
161.997 120.607 L
162.369 121.513 L
162.741 122.079 L
163.113 122.365 L
163.485 122.58 L
163.857 122.83 L
164.229 123.07 L
164.601 123.031 L
164.973 122.519 L
165.345 121.621 L
165.717 120.601 L
166.089 119.663 L
166.461 118.75 L
166.833 117.698 L
167.205 116.413 L
167.577 115.113 L
167.949 114.023 L
168.321 113.237 L
168.693 112.605 L
169.065 111.849 L
169.437 110.889 L
169.809 109.789 L
170.181 108.729 L
170.553 107.797 L
170.925 107.059 L
171.297 106.521 L
171.669 106.27 L
172.041 106.31 L
172.413 106.485 L
172.785 106.617 L
173.157 106.48 L
173.529 106.097 L
173.901 105.597 L
174.273 105.181 L
174.645 104.984 L
175.016 105.099 L
175.388 105.538 L
175.76 106.247 L
176.132 107.097 L
176.504 107.779 L
176.876 108.137 L
177.248 108.083 L
177.62 107.798 L
177.992 107.575 L
178.364 107.66 L
178.736 108.198 L
179.108 109.142 L
179.48 110.268 L
179.852 111.153 L
180.224 111.481 L
180.596 111.108 L
180.968 110.445 L
181.34 110.136 L
181.712 110.624 L
182.084 111.791 L
182.456 112.875 L
182.828 113.156 L
183.2 112.538 L
183.572 111.727 L
183.944 111.573 L
184.316 112.42 L
184.688 113.684 L
185.06 114.447 L
185.432 114.245 L
185.804 113.33 L
186.176 112.473 L
186.548 112.137 L
186.92 112.203 L
187.292 112.22 L
187.664 111.953 L
188.036 111.587 L
188.408 111.528 L
188.779 111.915 L
189.151 112.444 L
189.523 112.758 L
189.895 112.647 L
190.267 112.287 L
190.639 111.939 L
191.011 111.664 L
191.383 111.325 L
191.755 110.718 L
192.127 109.774 L
192.499 108.658 L
192.871 107.733 L
193.243 107.408 L
193.615 108.093 L
193.987 109.827 L
194.359 112.064 L
194.731 113.734 L
195.103 113.625 L
195.475 111.279 L
195.847 107.441 L
196.219 103.844 L
196.591 102.31 L
196.963 103.722 L
197.335 107.513 L
197.707 111.992 L
198.079 115.166 L
198.451 115.552 L
198.823 112.948 L
199.195 108.503 L
199.567 104.404 L
199.939 102.905 L
200.311 104.968 L
200.683 109.551 L
201.055 113.961 L
201.427 115.539 L
201.799 113.452 L
202.17 109.403 L
202.542 106.326 L
202.914 106.291 L
203.286 109.003 L
203.658 112.167 L
204.03 113.497 L
204.402 112.332 L
204.774 110.033 L
205.146 108.574 L
205.518 108.978 L
205.89 110.675 L
206.262 112.296 L
206.634 112.88 L
207.006 112.505 L
207.378 111.99 L
207.75 111.892 L
208.122 112.16 L
208.494 112.16 L
208.866 111.415 L
209.238 110.07 L
209.61 108.887 L
209.982 108.83 L
210.354 110.362 L
210.726 113.103 L
211.098 115.795 L
211.47 117.065 L
211.842 116.091 L
212.214 113.274 L
212.586 109.934 L
212.958 107.485 L
213.33 106.639 L
213.702 107.073 L
214.074 108.109 L
214.446 109.33 L
214.818 110.873 L
215.19 112.806 L
215.562 114.596 L
215.933 115.053 L
216.305 113.237 L
216.677 109.455 L
217.049 105.319 L
217.421 102.985 L
217.793 103.666 L
218.165 107.057 L
218.537 111.594 L
218.909 115.488 L
219.281 117.508 L
219.653 117.208 L
220.025 114.739 L
220.397 110.681 L
220.769 106.191 L
221.141 102.747 L
221.513 101.764 L
221.885 103.646 L
222.257 107.392 L
222.629 111.047 L
223.001 112.784 L
223.373 112.067 L
223.745 109.881 L
224.117 108.025 L
224.489 107.817 L
224.861 109.356 L
225.233 111.486 L
225.605 112.772 L
225.977 112.546 L
226.349 111.312 L
226.721 110.434 L
227.093 110.989 L
227.465 112.901 L
227.837 114.835 L
228.209 115.062 L
228.581 112.722 L
228.953 108.625 L
229.325 104.859 L
229.696 103.493 L
230.068 105.36 L
230.44 109.477 L
230.812 113.84 L
231.184 116.59 L
231.556 116.92 L
231.928 115.283 L
232.3 112.799 L
232.672 110.575 L
233.044 109.242 L
233.416 108.863 L
233.788 109.024 L
234.16 109.217 L
234.532 109.1 L
234.904 108.763 L
235.276 108.786 L
235.648 109.71 L
236.02 111.664 L
236.392 114.027 L
236.764 115.718 L
237.136 115.881 L
237.508 114.415 L
237.88 111.998 L
238.252 109.63 L
238.624 108.092 L
238.996 107.553 L
239.368 107.857 L
239.74 108.622 L
240.112 109.52 L
240.484 110.305 L
240.856 110.739 L
241.228 110.75 L
241.6 110.418 L
241.972 109.966 L
242.344 109.545 L
242.716 109.229 L
243.088 108.917 L
243.459 108.654 L
243.831 108.612 L
244.203 108.947 L
244.575 109.717 L
244.947 110.657 L
245.319 111.446 L
245.691 111.828 L
246.063 111.766 L
246.435 111.315 L
246.807 110.629 L
247.179 109.854 L
247.551 109.22 L
247.923 109.046 L
248.295 109.398 L
248.667 110.133 L
249.039 110.78 L
249.411 110.96 L
249.783 110.642 L
250.155 110.157 L
250.527 109.873 L
250.899 109.894 L
251.271 110.023 L
251.643 109.967 L
252.015 109.788 L
252.387 109.727 L
252.759 110.106 L
253.131 110.918 L
253.503 111.808 L
253.875 112.376 L
254.247 112.424 L
254.619 112.087 L
254.991 111.617 L
255.363 111.231 L
255.735 110.927 L
256.107 110.709 L
256.479 110.57 L
256.85 110.555 L
257.222 110.722 L
257.594 111.003 L
257.966 111.332 L
258.338 111.605 L
258.71 111.766 L
259.082 111.763 L
259.454 111.6 L
259.826 111.292 L
260.198 110.922 L
260.57 110.571 L
260.942 110.215 L
261.314 109.836 L
261.686 109.414 L
262.058 109.091 L
262.43 109.084 L
262.802 109.489 L
263.174 110.157 L
263.546 110.747 L
263.918 110.978 L
264.29 110.837 L
264.662 110.601 L
265.034 110.526 L
265.406 110.698 L
265.778 110.937 L
266.15 111.015 L
266.522 110.898 L
266.894 110.682 L
267.266 110.51 L
267.638 110.363 L
268.01 110.125 L
268.382 109.741 L
268.754 109.337 L
269.126 109.109 L
269.498 109.127 L
269.87 109.26 L
270.242 109.227 L
270.613 108.941 L
270.985 108.54 L
271.357 108.36 L
271.729 108.673 L
272.101 109.452 L
272.473 110.434 L
272.845 111.237 L
273.217 111.637 L
273.589 111.619 L
273.961 111.407 L
274.333 111.227 L
274.705 111.239 L
275.077 111.404 L
275.449 111.503 L
275.821 111.376 L
276.193 110.959 L
276.565 110.471 L
276.937 110.192 L
277.309 110.313 L
277.681 110.749 L
278.053 111.248 L
278.425 111.561 L
278.797 111.619 L
279.169 111.573 L
279.541 111.52 L
279.913 111.51 L
280.285 111.4 L
280.657 111.118 L
281.029 110.73 L
281.401 110.402 L
281.773 110.274 L
282.145 110.318 L
282.517 110.409 L
282.889 110.408 L
283.261 110.368 L
283.633 110.348 L
284.005 110.443 L
284.376 110.603 L
284.748 110.688 L
285.12 110.643 L
285.492 110.462 L
285.864 110.273 L
286.236 110.168 L
286.608 110.209 L
286.98 110.338 L
287.352 110.518 L
287.724 110.648 L
288.096 110.663 L
288.468 110.549 L
288.84 110.292 L
289.212 110.004 L
289.584 109.755 L
289.956 109.608 L
290.328 109.552 L
290.7 109.567 L
291.072 109.629 L
291.444 109.761 L
291.816 109.965 L
292.188 110.17 L
292.56 110.351 L
292.932 110.456 L
293.304 110.554 L
293.676 110.716 L
294.048 110.942 L
294.42 111.158 L
294.792 111.256 L
295.164 111.196 L
295.536 111.05 L
295.908 110.944 L
296.28 110.89 L
296.652 110.851 L
297.024 110.707 L
297.396 110.415 L
297.768 110.073 L
298.139 109.791 L
298.511 109.668 L
298.883 109.698 L
299.255 109.808 L
299.627 109.934 L
299.999 110.065 L
300.371 110.185 L
300.743 110.293 L
301.115 110.385 L
301.487 110.442 L
301.859 110.527 L
302.231 110.66 L
302.603 110.833 L
302.975 110.996 L
303.347 111.07 L
303.719 111.036 L
304.091 110.936 L
304.463 110.833 L
304.835 110.758 L
305.207 110.727 L
305.579 110.693 L
305.951 110.648 L
306.323 110.598 L
306.695 110.544 L
307.067 110.534 L
307.439 110.575 L
307.811 110.682 L
308.183 110.838 L
308.555 111.002 L
308.927 111.106 L
309.299 111.128 L
309.671 111.079 L
310.043 111.003 L
310.415 110.965 L
310.787 110.938 L
311.159 110.903 L
311.531 110.816 L
311.902 110.683 L
312.274 110.546 L
312.646 110.436 L
313.018 110.354 L
313.39 110.272 L
313.762 110.178 L
314.134 110.066 L
314.506 109.989 L
314.878 109.946 L
315.25 109.933 L
315.622 109.925 L
315.994 109.905 L
316.366 109.904 L
316.738 109.938 L
317.11 110.019 L
317.482 110.108 L
317.854 110.186 L
318.226 110.225 L
318.598 110.25 L
318.97 110.282 L
319.342 110.329 L
319.714 110.397 L
320.086 110.459 L
320.458 110.511 L
320.83 110.542 L
321.202 110.562 L
321.574 110.571 L
321.946 110.583 L
322.318 110.599 L
322.69 110.616 L
323.062 110.63 L
323.434 110.622 L
323.806 110.606 L
324.178 110.584 L
324.55 110.576 L
324.922 110.581 L
325.294 110.591 L
325.665 110.591 L
326.037 110.579 L
326.409 110.564 L
326.781 110.554 L
327.153 110.557 L
327.525 110.56 L
327.897 110.56 L
328.269 110.551 L
328.641 110.541 L
329.013 110.538 L
329.385 110.54 L
329.757 110.544 L
330.129 110.542 L
330.501 110.535 L
330.873 110.526 L
331.245 110.521 L
331.617 110.518 L
331.989 110.517 L
332.361 110.514 L
332.733 110.509 L
333.105 110.505 L
333.477 110.502 L
333.849 110.501 L
334.221 110.5 L
334.593 110.5 L
334.965 110.499 L
335.337 110.499 L
335.709 110.499 L
336.081 110.499 L
336.453 110.499 L
336.825 110.499 L
337.197 110.5 L
337.569 110.5 L
337.941 110.5 L
338.313 110.5 L
338.685 110.5 L
339.057 110.5 L
339.428 110.5 L
339.8 110.5 L
340.172 110.5 L
340.544 110.5 L
340.916 110.5 L
341.288 110.5 L
341.66 110.5 L
342.032 110.5 L
342.404 110.5 L
342.776 110.5 L
343.148 110.5 L
343.52 110.5 L
343.892 110.5 L
344.264 110.5 L
344.636 110.5 L
345.008 110.5 L
345.38 110.5 L
345.752 110.5 L
346.124 110.5 L
346.496 110.5 L
346.868 110.5 L
347.24 110.5 L
347.612 110.5 L
347.984 110.5 L
348.356 110.5 L
348.728 110.5 L
349.1 110.5 L
349.472 110.5 L
349.844 110.5 L
350.216 110.5 L
350.588 110.5 L
350.96 110.5 L
351.332 110.5 L
351.704 110.5 L
352.076 110.5 L
352.448 110.5 L
352.82 110.5 L
353.191 110.5 L
353.563 110.5 L
353.935 110.5 L
354.307 110.5 L
354.679 110.5 L
355.051 110.5 L
355.423 110.5 L
355.795 110.5 L
356.167 110.5 L
356.539 110.5 L
356.911 110.5 L
357.283 110.5 L
357.655 110.5 L
358.027 110.5 L
358.399 110.5 L
358.771 110.5 L
359.034 110.5 L
S
GR
GS
[0.75 0 0 0.75 66.3 24.44643] CT
/Helvetica-Bold 18.667 F
GS
[1 0 0 1 0 0] CT
-7 7 moveto 
1 -1 scale
(A) t 
GR
GR
GS
[0.75 0 0 0.75 0 -0.25] CT
1 GC
N
72 442 M
359 442 L
359 260 L
72 260 L
cp
f
GR
GS
[0.75 0 0 0.75 0 -0.25] CT
0.149 GC
2 setlinecap
1 LJ
0.667 LW
N
72 442 M
359 442 L
S
GR
GS
[0.75 0 0 0.75 0 -0.25] CT
0.149 GC
2 setlinecap
1 LJ
0.667 LW
N
72 260 M
359 260 L
S
GR
GS
[0.75 0 0 0.75 0 -0.25] CT
0.149 GC
2 setlinecap
1 LJ
0.667 LW
N
94.077 442 M
94.077 439.13 L
S
GR
GS
[0.75 0 0 0.75 0 -0.25] CT
0.149 GC
2 setlinecap
1 LJ
0.667 LW
N
138.231 442 M
138.231 439.13 L
S
GR
GS
[0.75 0 0 0.75 0 -0.25] CT
0.149 GC
2 setlinecap
1 LJ
0.667 LW
N
182.385 442 M
182.385 439.13 L
S
GR
GS
[0.75 0 0 0.75 0 -0.25] CT
0.149 GC
2 setlinecap
1 LJ
0.667 LW
N
226.538 442 M
226.538 439.13 L
S
GR
GS
[0.75 0 0 0.75 0 -0.25] CT
0.149 GC
2 setlinecap
1 LJ
0.667 LW
N
270.692 442 M
270.692 439.13 L
S
GR
GS
[0.75 0 0 0.75 0 -0.25] CT
0.149 GC
2 setlinecap
1 LJ
0.667 LW
N
314.846 442 M
314.846 439.13 L
S
GR
GS
[0.75 0 0 0.75 0 -0.25] CT
0.149 GC
2 setlinecap
1 LJ
0.667 LW
N
359 442 M
359 439.13 L
S
GR
GS
[0.75 0 0 0.75 0 -0.25] CT
0.149 GC
2 setlinecap
1 LJ
0.667 LW
N
94.077 260 M
94.077 262.87 L
S
GR
GS
[0.75 0 0 0.75 0 -0.25] CT
0.149 GC
2 setlinecap
1 LJ
0.667 LW
N
138.231 260 M
138.231 262.87 L
S
GR
GS
[0.75 0 0 0.75 0 -0.25] CT
0.149 GC
2 setlinecap
1 LJ
0.667 LW
N
182.385 260 M
182.385 262.87 L
S
GR
GS
[0.75 0 0 0.75 0 -0.25] CT
0.149 GC
2 setlinecap
1 LJ
0.667 LW
N
226.538 260 M
226.538 262.87 L
S
GR
GS
[0.75 0 0 0.75 0 -0.25] CT
0.149 GC
2 setlinecap
1 LJ
0.667 LW
N
270.692 260 M
270.692 262.87 L
S
GR
GS
[0.75 0 0 0.75 0 -0.25] CT
0.149 GC
2 setlinecap
1 LJ
0.667 LW
N
314.846 260 M
314.846 262.87 L
S
GR
GS
[0.75 0 0 0.75 0 -0.25] CT
0.149 GC
2 setlinecap
1 LJ
0.667 LW
N
359 260 M
359 262.87 L
S
GR
GS
[0.75 0 0 0.75 70.55769 335.45] CT
0.149 GC
/Helvetica 14.667 F
GS
[1 0 0 1 0 0] CT
-5 14 moveto 
1 -1 scale
(1) t 
GR
GR
GS
[0.75 0 0 0.75 103.67308 335.45] CT
0.149 GC
/Helvetica 14.667 F
GS
[1 0 0 1 0 0] CT
-5 14 moveto 
1 -1 scale
(2) t 
GR
GR
GS
[0.75 0 0 0.75 136.78846 335.45] CT
0.149 GC
/Helvetica 14.667 F
GS
[1 0 0 1 0 0] CT
-5 14 moveto 
1 -1 scale
(3) t 
GR
GR
GS
[0.75 0 0 0.75 169.90385 335.45] CT
0.149 GC
/Helvetica 14.667 F
GS
[1 0 0 1 0 0] CT
-5 14 moveto 
1 -1 scale
(4) t 
GR
GR
GS
[0.75 0 0 0.75 203.01924 335.45] CT
0.149 GC
/Helvetica 14.667 F
GS
[1 0 0 1 0 0] CT
-5 14 moveto 
1 -1 scale
(5) t 
GR
GR
GS
[0.75 0 0 0.75 236.13462 335.45] CT
0.149 GC
/Helvetica 14.667 F
GS
[1 0 0 1 0 0] CT
-5 14 moveto 
1 -1 scale
(6) t 
GR
GR
GS
[0.75 0 0 0.75 269.25 335.45] CT
0.149 GC
/Helvetica 14.667 F
GS
[1 0 0 1 0 0] CT
-5 14 moveto 
1 -1 scale
(7) t 
GR
GR
GS
[0.75 0 0 0.75 161.6251 349.94999] CT
0.149 GC
/Helvetica 16.133 F
GS
[1 0 0 1 0 0] CT
-63.5 16 moveto 
1 -1 scale
(Frequency \(kHz\)) t 
GR
GR
GS
[0.75 0 0 0.75 0 -0.25] CT
0.149 GC
2 setlinecap
1 LJ
0.667 LW
N
72 442 M
72 260 L
S
GR
GS
[0.75 0 0 0.75 0 -0.25] CT
0.149 GC
2 setlinecap
1 LJ
0.667 LW
N
359 442 M
359 260 L
S
GR
GS
[0.75 0 0 0.75 0 -0.25] CT
0.149 GC
2 setlinecap
1 LJ
0.667 LW
N
72 442 M
74.87 442 L
S
GR
GS
[0.75 0 0 0.75 0 -0.25] CT
0.149 GC
2 setlinecap
1 LJ
0.667 LW
N
72 396.5 M
74.87 396.5 L
S
GR
GS
[0.75 0 0 0.75 0 -0.25] CT
0.149 GC
2 setlinecap
1 LJ
0.667 LW
N
72 351 M
74.87 351 L
S
GR
GS
[0.75 0 0 0.75 0 -0.25] CT
0.149 GC
2 setlinecap
1 LJ
0.667 LW
N
72 305.5 M
74.87 305.5 L
S
GR
GS
[0.75 0 0 0.75 0 -0.25] CT
0.149 GC
2 setlinecap
1 LJ
0.667 LW
N
72 260 M
74.87 260 L
S
GR
GS
[0.75 0 0 0.75 0 -0.25] CT
0.149 GC
2 setlinecap
1 LJ
0.667 LW
N
359 442 M
356.13 442 L
S
GR
GS
[0.75 0 0 0.75 0 -0.25] CT
0.149 GC
2 setlinecap
1 LJ
0.667 LW
N
359 396.5 M
356.13 396.5 L
S
GR
GS
[0.75 0 0 0.75 0 -0.25] CT
0.149 GC
2 setlinecap
1 LJ
0.667 LW
N
359 351 M
356.13 351 L
S
GR
GS
[0.75 0 0 0.75 0 -0.25] CT
0.149 GC
2 setlinecap
1 LJ
0.667 LW
N
359 305.5 M
356.13 305.5 L
S
GR
GS
[0.75 0 0 0.75 0 -0.25] CT
0.149 GC
2 setlinecap
1 LJ
0.667 LW
N
359 260 M
356.13 260 L
S
GR
GS
[0.75 0 0 0.75 49.8 331.25] CT
0.149 GC
/Helvetica 14.667 F
GS
[1 0 0 1 0 0] CT
-10 5 moveto 
1 -1 scale
(0) t 
GR
GR
GS
[0.75 0 0 0.75 49.8 297.125] CT
0.149 GC
/Helvetica 14.667 F
GS
[1 0 0 1 0 0] CT
-19 5 moveto 
1 -1 scale
(10) t 
GR
GR
GS
[0.75 0 0 0.75 49.8 263] CT
0.149 GC
/Helvetica 14.667 F
GS
[1 0 0 1 0 0] CT
-19 5 moveto 
1 -1 scale
(20) t 
GR
GR
GS
[0.75 0 0 0.75 49.8 228.875] CT
0.149 GC
/Helvetica 14.667 F
GS
[1 0 0 1 0 0] CT
-19 5 moveto 
1 -1 scale
(30) t 
GR
GR
GS
[0.75 0 0 0.75 49.8 194.75] CT
0.149 GC
/Helvetica 14.667 F
GS
[1 0 0 1 0 0] CT
-19 5 moveto 
1 -1 scale
(40) t 
GR
GR
GS
[0.75 0 0 0.75 63.69613 310.7047] CT
0 1 0 RC
N
2.667 0 M
2.667 1.473 1.473 2.667 0 2.667 C
-1.473 2.667 -2.667 1.473 -2.667 0 C
-2.667 -1.473 -1.473 -2.667 0 -2.667 C
1.473 -2.667 2.667 -1.473 2.667 0 C
cp
f
GR
GS
[0.75 0 0 0.75 74.57081 315.67958] CT
0 1 0 RC
N
/f-1992514645{2.667 0 M
2.667 1.473 1.473 2.667 0 2.667 C
-1.473 2.667 -2.667 1.473 -2.667 0 C
-2.667 -1.473 -1.473 -2.667 0 -2.667 C
1.473 -2.667 2.667 -1.473 2.667 0 C
cp}def
f-1992514645
f
GR
GS
[0.75 0 0 0.75 89.94992 319.44981] CT
0 1 0 RC
N
f-1992514645
f
GR
GS
[0.75 0 0 0.75 111.69926 322.30713] CT
0 1 0 RC
N
f-1992514645
f
GR
GS
[0.75 0 0 0.75 142.45746 324.47258] CT
0 1 0 RC
N
f-1992514645
f
GR
GS
[0.75 0 0 0.75 185.95611 326.11366] CT
0 1 0 RC
N
f-1992514645
f
GR
GS
[0.75 0 0 0.75 247.47247 327.35738] CT
0 1 0 RC
N
f-1992514645
f
GR
GS
[0.75 0 0 0.75 0 -0.25] CT
1 LJ
1.6 LW
N
84.928 414.606 M
99.428 421.239 L
119.933 426.266 L
148.932 430.076 L
189.943 432.963 L
247.941 435.152 L
329.963 436.81 L
S
GR
GS
[0.75 0 0 0.75 63.69613 228.52351] CT
1 0 0 RC
N
f-1992514645
f
GR
GS
[0.75 0 0 0.75 74.57081 253.39786] CT
1 0 0 RC
N
f-1992514645
f
GR
GS
[0.75 0 0 0.75 89.94992 272.24909] CT
1 0 0 RC
N
f-1992514645
f
GR
GS
[0.75 0 0 0.75 111.69926 286.53567] CT
1 0 0 RC
N
f-1992514645
f
GR
GS
[0.75 0 0 0.75 142.45746 297.36285] CT
1 0 0 RC
N
f-1992514645
f
GR
GS
[0.75 0 0 0.75 185.95611 305.56834] CT
1 0 0 RC
N
f-1992514645
f
GR
GS
[0.75 0 0 0.75 247.47247 311.78694] CT
1 0 0 RC
N
f-1992514645
f
GR
GS
[0.75 0 0 0.75 0 -0.25] CT
1 LJ
1.6 LW
N
84.928 305.031 M
99.428 338.197 L
119.933 363.332 L
148.932 382.381 L
189.943 396.817 L
247.941 407.758 L
329.963 416.049 L
S
GR
GS
[0 -0.75 0.75 0 19.5 283.25] CT
N
2.5 -0.25 M
2.5 -0.359 2.516 -0.422 QT
4.203 -5.906 L
2.75 -5.906 L
2.172 -5.906 1.664 -5.539 QT
1.156 -5.172 0.813 -4.609 QT
0.781 -4.547 0.719 -4.547 QT
0.531 -4.547 L
0.391 -4.547 0.391 -4.703 QT
0.391 -4.734 0.422 -4.797 QT
0.938 -5.688 1.539 -6.297 QT
2.141 -6.906 2.891 -6.906 QT
7.797 -6.906 L
7.969 -6.906 8.086 -6.789 QT
8.203 -6.672 8.203 -6.5 QT
8.203 -6.266 8.031 -6.086 QT
7.859 -5.906 7.625 -5.906 QT
4.719 -5.906 L
3.656 -0.391 L
3.594 -0.125 3.422 0.047 QT
3.25 0.219 2.984 0.219 QT
2.781 0.219 2.641 0.086 QT
2.5 -0.047 2.5 -0.25 QT
cp
f
GR
GS
[0 -0.75 0.75 0 25.5 278] CT
/Helvetica 12.8 F
GS
[1 0 0 1 0 0] CT
0 0 moveto 
1 -1 scale
(c) t 
GR
GR
GS
[0 -0.75 0.75 0 19.5 272.75] CT
/Helvetica 16 F
GS
[1 0 0 1 0 0] CT
0 0 moveto 
1 -1 scale
( \(ms\)) t 
GR
GR
GS
[0.75 0 0 0.75 63.93462 208.40001] CT
/Helvetica-Bold 18.667 F
GS
[1 0 0 1 0 0] CT
-6 7 moveto 
1 -1 scale
(B) t 
GR
GR
%%Trailer
%%Pages: 1
%%EOF
